Quartus/DDM/Practica 2/2.1/simulation/qsim/Practica2.msim.vcd
$comment
	File created using the following command:
		vcd file Practica2.msim.vcd -direction
$end
$date
	Wed Aug 31 23:23:26 2022
$end
$version
	ModelSim Version 10.5b
$end
$timescale
	1ps
$end

$scope module controlentrada_vhd_vec_tst $end
$var wire 1 ! A [2] $end
$var wire 1 " A [1] $end
$var wire 1 # A [0] $end
$var wire 1 $ L [2] $end
$var wire 1 % L [1] $end
$var wire 1 & L [0] $end

$scope module i1 $end
$var wire 1 ' gnd $end
$var wire 1 ( vcc $end
$var wire 1 ) unknown $end
$var wire 1 * devoe $end
$var wire 1 + devclrn $end
$var wire 1 , devpor $end
$var wire 1 - ww_devoe $end
$var wire 1 . ww_devclrn $end
$var wire 1 / ww_devpor $end
$var wire 1 0 ww_A [2] $end
$var wire 1 1 ww_A [1] $end
$var wire 1 2 ww_A [0] $end
$var wire 1 3 ww_L [2] $end
$var wire 1 4 ww_L [1] $end
$var wire 1 5 ww_L [0] $end
$var wire 1 6 \~QUARTUS_CREATED_ADC1~_CHSEL_bus\ [4] $end
$var wire 1 7 \~QUARTUS_CREATED_ADC1~_CHSEL_bus\ [3] $end
$var wire 1 8 \~QUARTUS_CREATED_ADC1~_CHSEL_bus\ [2] $end
$var wire 1 9 \~QUARTUS_CREATED_ADC1~_CHSEL_bus\ [1] $end
$var wire 1 : \~QUARTUS_CREATED_ADC1~_CHSEL_bus\ [0] $end
$var wire 1 ; \~QUARTUS_CREATED_ADC2~_CHSEL_bus\ [4] $end
$var wire 1 < \~QUARTUS_CREATED_ADC2~_CHSEL_bus\ [3] $end
$var wire 1 = \~QUARTUS_CREATED_ADC2~_CHSEL_bus\ [2] $end
$var wire 1 > \~QUARTUS_CREATED_ADC2~_CHSEL_bus\ [1] $end
$var wire 1 ? \~QUARTUS_CREATED_ADC2~_CHSEL_bus\ [0] $end
$var wire 1 @ \~QUARTUS_CREATED_GND~I_combout\ $end
$var wire 1 A \~QUARTUS_CREATED_UNVM~~busy\ $end
$var wire 1 B \~QUARTUS_CREATED_ADC1~~eoc\ $end
$var wire 1 C \~QUARTUS_CREATED_ADC2~~eoc\ $end
$var wire 1 D \L[0]~output_o\ $end
$var wire 1 E \L[1]~output_o\ $end
$var wire 1 F \L[2]~output_o\ $end
$var wire 1 G \A[1]~input_o\ $end
$var wire 1 H \A[2]~input_o\ $end
$var wire 1 I \A[0]~input_o\ $end
$var wire 1 J \Mux1~0_combout\ $end
$var wire 1 K \Mux0~0_combout\ $end
$upscope $end
$upscope $end
$enddefinitions $end
#0
$dumpvars
0'
1(
x)
1*
1+
1,
1-
1.
1/
0@
zA
zB
zC
1D
0E
0F
0G
0H
1I
1J
0K
0!
0"
1#
00
01
12
03
04
15
06
07
08
09
0:
0;
0<
0=
0>
0?
0$
0%
1&
$end
#80000
0#
02
0I
0J
0D
05
0&
#100000
1"
11
1G
1K
1E
14
1%
#160000
0"
1!
01
10
1H
0G
1F
0K
13
0E
1$
04
0%
#240000
0!
00
0H
0F
03
0$
#280000
1#
12
1I
1J
1D
15
1&
#300000
1"
11
1G
0J
1K
1E
0D
14
05
0&
1%
#380000
1!
10
1H
1F
0K
13
0E
1$
04
0%
#420000
0"
01
0G
#520000
0!
00
0H
0F
1J
03
1D
0$
15
1&
#540000
1!
10
1H
1F
0J
13
0D
1$
05
0&
#600000
1"
11
1G
#640000
0#
02
0I
#700000
1#
0"
12
01
0G
1I
#720000
0!
00
0H
0F
1J
03
1D
0$
15
1&
#760000
0#
02
0I
0J
0D
05
0&
