Quartus/DDM/Practica 2/2.2/simulation/qsim/Practica2.msim.vcd
$comment
	File created using the following command:
		vcd file Practica2.msim.vcd -direction
$end
$date
	Thu Sep 01 18:37:22 2022
$end
$version
	ModelSim Version 10.5b
$end
$timescale
	1ps
$end

$scope module tabla_vlg_vec_tst $end
$var reg 3 ! A [2:0] $end
$var wire 1 " L [6] $end
$var wire 1 # L [5] $end
$var wire 1 $ L [4] $end
$var wire 1 % L [3] $end
$var wire 1 & L [2] $end
$var wire 1 ' L [1] $end
$var wire 1 ( L [0] $end

$scope module i1 $end
$var wire 1 ) gnd $end
$var wire 1 * vcc $end
$var wire 1 + unknown $end
$var tri1 1 , devclrn $end
$var tri1 1 - devpor $end
$var tri1 1 . devoe $end
$var wire 1 / L[0]~output_o $end
$var wire 1 0 L[1]~output_o $end
$var wire 1 1 L[2]~output_o $end
$var wire 1 2 L[3]~output_o $end
$var wire 1 3 L[4]~output_o $end
$var wire 1 4 L[5]~output_o $end
$var wire 1 5 L[6]~output_o $end
$var wire 1 6 A[2]~input_o $end
$var wire 1 7 A[0]~input_o $end
$var wire 1 8 A[1]~input_o $end
$var wire 1 9 Mux2~0_combout $end
$var wire 1 : Mux1~0_combout $end
$var wire 1 ; Mux0~0_combout $end
$upscope $end
$upscope $end
$enddefinitions $end
#0
$dumpvars
b0 !
0(
0'
0&
0%
0$
0#
1"
0)
1*
x+
1,
1-
1.
0/
00
01
02
03
04
15
06
07
08
19
1:
0;
$end
#60000
b1 !
17
0:
09
10
11
1&
1'
#120000
b11 !
b10 !
18
07
1;
05
0"
#180000
b110 !
b100 !
08
16
13
1:
1$
01
0&
#240000
b0 !
06
03
0;
19
0$
00
15
1"
0'
#260000
b1 !
b11 !
18
17
1;
0:
09
10
11
05
0"
1&
1'
#320000
b10 !
b0 !
08
07
0;
1:
19
00
01
15
1"
0&
0'
#360000
b100 !
b101 !
17
16
13
09
1;
1$
05
10
1'
0"
#420000
b1 !
b0 !
07
06
03
19
0;
0$
15
00
0'
1"
#460000
b10 !
b110 !
18
16
13
1;
09
1$
10
05
0"
1'
#540000
b100 !
b0 !
08
06
03
0;
19
0$
00
15
1"
0'
#600000
b1 !
b11 !
b111 !
18
17
16
13
1;
09
1$
10
05
0"
1'
#740000
b110 !
b100 !
b0 !
08
07
06
03
0;
19
0$
00
15
1"
0'
